building_address,unit,BBL,source,listing_id
1 Central Park S,,1012747504,agent,
1 Gracie Terrace,4H,1015900007.0,rebny,RPLU-63219805500
1 Grand Army Plaza,F3,3011727502.0,rebny,RPLU-63220078137
1 Main Street,6F,3000277501.0,rebny,RPLU-63220205809
1 West 67th Street,,1011200023,agent,
10 Riverside Boulevard,,1011710155,agent,
10 West 66th Street,,1011180022,agent,
10 West End Ave,,1011517502,agent,
10 West End Avenue,,1011517502,agent,
100 Manhattan Ave,,1018407501,agent,
100 Riverside Boulevard,20H,1011717505.0,rebny,RPLU-63219890102
100 United Nations Plz,,1013417503,agent,
100 West 57th Street,,1010090029,agent,
100 West 89th Street,7J,1012197501.0,rebny,RPLU-63220147463
100 West 94th Street,,1012240029,agent,
101 Central Park W,,1011230029,agent,
101 Chauncey Street,1,3016850048.0,rebny,RPLU-63219838782
101 Lafayette Avenue,11K,3021000072.0,rebny,RPLU-63220109004
101 West 79th Street,21C,1012107501.0,rebny,RPLU-63220169903
101 West 87th Street,,1012187501,agent,
1010 Park Ave,,1014967502,agent,
1011 Rutland Road,3F,3045970052.0,rebny,RPLU-63220236599
102 West 75th Street ,42,,agent,
102 West 85th Street,,1012150035,agent,
1020 Grand concourse,10A,2024610094.0,rebny,RPLU-63220046502
1020 Park Ave,,1014970034,agent,
103 East 84th Street,,1015130005,agent,
1036 Bedford Avenue,,3019420045.0,rebny,RPLU-63219504415
104 East 37th Street,,1008920080,agent,
1043 Halsey street,PH,3034020058.0,rebny,RPLU-63220189418
1043 Halsey street,2B,3034020058.0,rebny,RPLU-63220119023
1049 Park Ave,,1015150070,agent,
105 West 73rd Street,,1011450029,agent,
1050 Park Avenue,MEDICAL,1014980037.0,rebny,RPLU-63220142269
1055 Park Ave,,1015157504,agent,
1056 Fifth Avenue,MEDICAL,1014980069.0,rebny,RPLU-63219588200
106 Duane Street,3,1001507503.0,rebny,RPLU-63220145487
106 East 31st Street,2B,1008860083.0,rebny,RPLU-63220180991
106 West 117th Street,5A,1019017501.0,rebny,RPLU-63219592610
106 West 28th Street,3,1008030045.0,rebny,RPLU-63220249790
106 West 28th Street,4,1008030045.0,rebny,RPLU-63220157958
106 West 87th Street,,1012170138,agent,
107 West 86th Street,,1012170029,agent,
1095 Park Ave,,1015170069,agent,
11 East 70th Street,GALLERY/1A,1013857501.0,rebny,RPLU-63219526323
11 Hancock Place,1007,1019510007.0,rebny,RPLU-63219699479
11 Hancock Place,709,1019510007.0,rebny,RPLU-63219699429
11 Hancock Place,507,1019510007.0,rebny,RPLU-63219699504
11 Riverside Drive,1OW,1011840031.0,rebny,RPLU-63220096581
11 Riverside Drive,14PW,1011840031.0,rebny,RPLU-63220216407
11 Riverside Drive,11ME,1011840031.0,rebny,RPLU-63219838304
11 Riverside Drive,8PW,1011840031.0,rebny,RPLU-63220213540
11 Riverside Drive,,1011840031,agent,
11 West 81st Street,,1011950023,agent,
110 Riverside Drive,3C,1012450047.0,rebny,RPLU-63220039095
110 Riverside Drive,,1012450047,agent,
110 West 90th Street,,1012207504,agent,
111 East 56th Street,810,1013110005.0,rebny,RPLU-63214253298
111 East 56th Street,1408,1013110005.0,rebny,RPLU-63214253255
111 East 56th Street,14ABC,1013110005.0,rebny,RPLU-63214255248
111 East 56th Street,1400,1013110005.0,rebny,RPLU-63214253195
111 East 56th Street,1401,1013110005.0,rebny,RPLU-63214253254
111 East 75th Street,,1014100009,agent,
111 Fourth Avenue,9O,1005560044.0,rebny,RPLU-63220080306
111 Third Avenue,5K,1004697502.0,rebny,RPLU-63220054312
111 West 67th Street,26A,1011397503.0,rebny,RPLU-63220187387
111 West 67th Street,,1011397503,agent,
111 West 94th Street,,1012250023,agent,
1112 Park Ave,,1015010040,agent,
1112 Park Avenue ,4B,1015010040,agent,
112 Lefferts Place,,3020190033.0,rebny,RPLU-63219501766
113 West 77th Street,,1011490126,agent,
1133 Park Ave,,1015190069,agent,
114 East 72nd Street,,1014060065,agent,
114 East 90th Street,,1015180061,agent,
115 Allen Street,3,1004157502.0,rebny,RPLU-63220237813
115 West 87th Street,3,1012180027.0,rebny,RPLU-63220157897
115 West 96th Street ,9,1018517501,agent,
1150 5th Ave,,1016020001,agent,
1150 Fifth Avenue,,1016020001,agent,
1151 Dean Street,2C,3012060066.0,rebny,RPLU-63220235927
1155 Dean Street,2C,3012060064.0,rebny,RPLU-63220235986
116 East 63rd Street,7A,1013970066.0,rebny,RPLU-63219802501
116 East 66th Street,,1014000062,agent,
116 East 66th Street ,5/6D,,agent,
1160 3rd Ave,,1014027501,agent,
1160 Park Ave,,1015040031,agent,
117 East 29th Street,,1008857501,agent,
117 East 37th Street,,1008930014,agent,
117 East 57th Street,,1013127501,agent,
117 East 72nd Street,,1014070008,agent,
117 West 74th Street,3A,1011460022.0,rebny,RPLU-63220224615
1175 York Avenue,10H,1014587502.0,rebny,RPLU-63220220423
1175 York Avenue,4D,1014587502.0,rebny,RPLU-63220224385
1175 York Avenue,2L,1014587502.0,rebny,RPLU-63220073958
1175 York Avenue,,1014587502,agent,
1175 York Avenue,5G,1014587502.0,rebny,RPLU-63220251870
1175 York Avenue ,PHA3,,agent,
118 East 57th Street,STORE,1013110063.0,rebny,RPLU-63220224608
118 East 60th Street,,1013940007,agent,
119 East 101st Street,,1016297501,agent,
1199 Park Ave,,1015230001,agent,
12 Beekman Place,,1013610039,agent,
12 West 72nd Street,,1011240042,agent,
12 West 96th Street,1B,1012090037.0,rebny,RPLU-63219482800
120 East 36th Street,,1008910077,agent,
120 East 81st Street,,1015090056,agent,
120 East 87th Street,P18C,1015157502.0,rebny,RPLU-63219994661
120 East 89th Street,6E,1015170058.0,rebny,RPLU-63220242438
120 East 90th Street,,1015187501,agent,
120 East 90th Street,11A,1015187501.0,rebny,RPLU-63219638821
120 Greenwich Street,,1000537501,agent,
120 Riverside Boulevard,3N,1011717504.0,rebny,RPLU-63220063044
120 West 58th Street,,1010107502,agent,
120 West 58th Street,9A,1010107502.0,rebny,RPLU-63220157076
120 West 70th Street,,1011410039,agent,
1205 Rogers Avenue,1A,3052140033.0,rebny,RPLU-63220112501
121 East 60th Street,4D,1013950010.0,rebny,RPLU-63219714538
121 East 60th Street,8C,1013950010.0,rebny,RPLU-63219619618
121 East 88th Street,,1015170013,agent,
121 West 118th Street,2,1019030020.0,rebny,RPLU-63220173163
121 West 72nd Street,8G,1011440024.0,rebny,RPLU-63220096540
1212 5th Ave,,1016077502,agent,
122 East 82nd Street,6B,1015100060.0,rebny,RPLU-63220213465
1222 Eighth Avenue,TOP,3010980047.0,rebny,RPLU-63220166221
1228 Bedford Avenue,3,3020000019.0,rebny,RPLU-63220180275
1228 Dean Street,,3012130023.0,rebny,RPLU-63219553365
123 East 37th Street,,1008930017,agent,
123 West 74th Street,,1011460018,agent,
1230 Park Ave,,1015070040,agent,
1235 Park Avenue,6A,1015247501.0,rebny,RPLU-63220058861
124 East 79th Street,,1014137501,agent,
125 Cedar Street,9N,1000520021.0,rebny,RPLU-63220026617
125 East 12th Street,,1005587503,agent,
125 East 72nd Street ,3A,1014070016,agent,
125 East 87th Street,16C,1015160013.0,rebny,RPLU-63220168667
125 East 87th Street,16B,1015160013.0,rebny,RPLU-63220230623
125 East 87th Street,2B,1015160013.0,rebny,RPLU-63220230638
125 East 87th Street,4D,1015160013.0,rebny,RPLU-63220180456
125 East 87th Street,5C,1015160013.0,rebny,RPLU-63220230613
125 Greene Street,,1005140032,agent,
1250 St Nicholas Avenue,2A,1021290006.0,rebny,RPLU-63220185365
1275 Grant Avenue,4C,2024530068.0,rebny,RPLU-63220246465
1280 Fifth Avenue,19G,1016157501.0,rebny,RPLU-63219922640
1289 Lexington Ave,,1015157505,agent,
129 Duane Street,2T,1001477505.0,rebny,RPLU-63219870777
129 East 82nd Street,,1015117501,agent,
129 West 128th Street,3A,1019130016.0,rebny,RPLU-63220190690
130 East 63rd Street,6E,1013977504.0,rebny,RPLU-63219838330
130 East 67th Street,,1014010054,agent,
130 East 94th Street,,1015220059,agent,
130 Lenox Ave,,1016007501,agent,
130 Lenox Avenue,715,1016007501.0,rebny,RPLU-63220063923
130 West 112th Street,1G,1018210053.0,rebny,RPLU-63220249108
130 West 79th Street,,1011507503,agent,
130 West 79th Street,8C,1011507503.0,rebny,RPLU-63220239915
131 East 69th Street,,1014040022,agent,
131 Thompson Street,2F,1005177501.0,rebny,RPLU-63220064613
131 West 28th Street,,1008040018,agent,
132 East 30th Street,,1008857504,agent,
132 East 65th Street,,1013990150,agent,
132 East 65th Street,7B,1013990150.0,rebny,RPLU-63220050653
132 West 112th Street,2C,1018210055.0,rebny,RPLU-63220214591
132 West 78th Street ,2,1011490042,agent,
132 West 88th Street,3A,1012180142.0,rebny,RPLU-63220246341
132-03 Sanford Avenue,3E,4050407501.0,rebny,RPLU-63220064031
134 East 22nd Street,612,1008770060.0,rebny,RPLU-63220238184
134 East 22nd Street,110,1008770060.0,rebny,RPLU-63220229163
134 East 22nd Street,206,1008770060.0,rebny,RPLU-63220190768
134 East 22nd Street,403,1008770060.0,rebny,RPLU-63220229156
134 East 22nd Street,508,1008770060.0,rebny,RPLU-63220198869
135 East 54th Street,,1013097502,agent,
135 Ocean parkway,12A,3053290072.0,rebny,RPLU-63220229778
135 West 52nd Street,20C,1010057501.0,rebny,RPLU-63219030790
135 Willow Street,409,3002350020.0,rebny,RPLU-63219977614
136 East 36th Street,,1008910066,agent,
136 East 56th Street,,1013100059,agent,
136 East 64th Street,,1013980060,agent,
136 East 76th Street,,1014107501,agent,
136 West 75th Street,,1011460049,agent,
1361 Madison Avenue,1C,1015070021.0,rebny,RPLU-63219347801
138 East 36th Street,,1008910062,agent,
138 Pacific Street,PARLOR,3002910021.0,rebny,RPLU-63220181811
139 East 23rd Street,,1008790025,agent,
139 East 33rd Street,,1008890015,agent,
139 East 66th Street ,1N,1014010027,agent,
139 East 79th Street,,1015080016,agent,
139 East 94th Street,,1015230014,agent,
139 West 82nd Street,,1012130009,agent,
14 East 4th Street,1124,1005317501.0,rebny,RPLU-63220219655
14 Fort Greene Place,4,3020970046.0,rebny,RPLU-63220267267
14 Sutton Place South,9B,1013680024.0,rebny,RPLU-63220218024
14 West 131st Street,2,1017280046.0,rebny,RPLU-63220186651
140 East 28th Street,,1008830058,agent,
140 East 56th Street,11L,1013107502.0,rebny,RPLU-63220238304
140 East 56th Street,11J,1013107502.0,rebny,RPLU-63220221274
140 East 56th Street,,1013107502,agent,
140 East 72nd Street,,1014060017,agent,
140 Riverside Drive,,1012480001,agent,
140 West 71st Street,3C,1011420048.0,rebny,RPLU-63220183592
140 West End Ave,,1011587504,agent,
141 East 88th Street,,1015177502,agent,
141 West 129th Street,,1019140115.0,rebny,RPLU-63219725681
142 West End Ave,,1011587504,agent,
143 East 34th Street,,1008907503,agent,
144 East 30th Street,,1008857503,agent,
144 Seventh Avenue,,3009630058.0,rebny,RPLU-63219828913
1441 3rd Ave,,1015277501,agent,
145 Central Park West,14A,1011270029.0,rebny,RPLU-63220147308
145 East 29th Street,,1008850037,agent,
145 East 48th Street,,1013037501,agent,
146 West 57th Street,,1010097501,agent,
148 East 19th Street,3C,1008747504.0,rebny,RPLU-63220236948
148 Greene Street,2E,1005130010.0,rebny,RPLU-63220221567
15 Central Park W,,1011147503,agent,
15 Charles Street,8F,1006127504.0,rebny,RPLU-63220163965
15 East 10th Street,5B,1005680026.0,rebny,RPLU-63220191346
15 East 69th Street,11C,1013847502.0,rebny,RPLU-63218677584
15 Jones Street,,1005900079,agent,
15 Jones Street ,4E,1005900079,agent,
15 Park Avenue,9D,1008900005.0,rebny,RPLU-63220223733
15 Park Avenue,16C,1008900005.0,rebny,RPLU-63219995170
15 Park Avenue,5D,1008900005.0,rebny,RPLU-63220010516
15 Park Avenue,5A,1008900005.0,rebny,RPLU-63220203083
15 Park Avenue,15A,1008900005.0,rebny,RPLU-63220200601
15 Park Avenue,14D,1008900005.0,rebny,RPLU-63220200643
15 Park Avenue,7B,1008900005.0,rebny,RPLU-63220200647
15 West 53rd Street,,1012697501,agent,
15 West 61st Street,,1011140009,agent,
15 West 72nd Street,,1011250024,agent,
15 West 81st Street,,1011950018,agent,
15 West 84th Street,6H,1011980019.0,rebny,RPLU-63220154484
150 Bennett Avenue,5H,1021800340.0,rebny,RPLU-63220237573
150 Bennett Avenue,2J,1021800340.0,rebny,RPLU-63220165294
150 Columbus Ave,,1011387501,agent,
150 East 61st Street,,1013950050,agent,
150 West 95th Street,,1012250052,agent,
150 West End Avenue,25N,1011587503.0,rebny,RPLU-63220023109
151 East 85th Street,,1015147502,agent,
151 West 28th Street,4W,1008040008.0,rebny,RPLU-63220186756
151 West 74th Street,,1011460008,agent,
152 Prospect Park West,2B,3010950040.0,rebny,RPLU-63220069146
152 West 58th Street,,1010100053,agent,
153 East 57th Street,,1013120028,agent,
154 West 18th Street,,1007930067,agent,
155 Beach 5th Street,,4156090006.0,rebny,RPLU-63220254993
155 East 38th Street,5E,1008947502.0,rebny,RPLU-63220249701
155 East 49th Street,6D,1013040029.0,rebny,RPLU-63220142471
155 East 49th Street ,2F,1013040029,agent,
155 East 55th Street,9B,1013040029.0,rebny,RPLU-63220231871
155 East 55th Street,8C,1013040029.0,rebny,RPLU-63220242811
155 East 76th Street,MEDICAL,1014110023.0,rebny,RPLU-63220115843
155 East 76th Street,,1014110023,agent,
155 East 91st Street,,1015200025,agent,
155 West 68th Street,,1011407501,agent,
156 East 79th Street,,1014130050,agent,
157 Bedford Ave,3,3023120005.0,rebny,RPLU-63220242953
157 Bergen Street,1,3001950056.0,rebny,RPLU-63220113763
157 East 32nd Street,,1008887501,agent,
157 East 72nd Street,14D,1014077501.0,rebny,RPLU-63220178571
157 West 57th Street,39E,1010107506.0,rebny,RPLU-63219926561
157 West 57th Street,39E,1010107506.0,rebny,RPLU-63220132908
157 West 57th Street,,1010107506,agent,
157 West 79th Street,,1012100009,agent,
158 Seventh Avenue,,3009660040.0,rebny,RPLU-63219828897
159 Mercer Street,3E,1005137502.0,rebny,RPLU-63220129053
159 West 53rd Street,,1010067501,agent,
16 Park Ave,,1008640041,agent,
16 Verandah Place,,3003010011.0,rebny,RPLU-63220165962
160 Bennett Avenue,5B,1021800340.0,rebny,RPLU-63220165297
160 East 22nd Street ,4B,1008777501,agent,
160 East 84th Street,4F,1015120040.0,rebny,RPLU-63220232430
160 East 91st Street,7A,1015190046.0,rebny,RPLU-63220206218
160 East 91st Street,,1015190046,agent,
160 Wadsworth Avenue,600/601,1021647501.0,rebny,RPLU-63219550715
160 West 66th Street,46A,1011377501.0,rebny,RPLU-63220239722
160 West 66th Street,46A,1011377501.0,rebny,RPLU-63220239717
160 West 85th Street,,1012150056,agent,
160 West 86th Street,7B,1012167503.0,rebny,RPLU-63220183419
160 West End Ave,,1011587501,agent,
1601 Third Avenue,19D,1015367501.0,rebny,RPLU-63220172329
1601 Third Avenue,19D,1015367501.0,rebny,RPLU-63220169518
1601 Third Avenue,12C,1015367501.0,rebny,RPLU-63220021871
161 East 79th Street,,1015080024,agent,
161 West 16th Street,12C,1007927504.0,rebny,RPLU-63220191109
161 West 61st Street,10E,1011327501.0,rebny,RPLU-63220175702
1619 3rd Ave,,1015367501,agent,
1619 Third Avenue,11K,1015367501.0,rebny,RPLU-63220172393
163 East 81st Street,,1015100030,agent,
1639 Broadway,,3034140003.0,rebny,RPLU-63220199938
164 East 72nd Street,,1014060046,agent,
165 East 32nd Street,,1008880037,agent,
165 East 71st Street,,1014060027,agent,
165 West 91st Street,11E,1012227501.0,rebny,RPLU-632161222
165 West 91st Street,11E,1012227501.0,rebny,RPLU-63220000942
165 West 91st Street,,1012227501,agent,
165 West End Ave,,1011797501,agent,
165 West End Avenue,6F,1011797501.0,rebny,RPLU-63220021586
166 East 35th Street,5B,1008900049.0,rebny,RPLU-63220145374
166 East 35th Street,,1008900049,agent,
166 East 35th Street ,7D,1008900049,agent,
166 East 61st Street,,1013957501,agent,
166 East 92nd Street,,1015200041,agent,
166 Suffolk Street,B,1003500001.0,rebny,RPLU-63220141049
1662 Dean Street,,3013480010.0,rebny,RPLU-63220073981
167 East 61st Street,,1013960033,agent,
167 East 61st Street,19E,1013960033.0,rebny,RPLU-63220131361
167 West 73rd Street,,1011450007,agent,
168 East 100th Street,402,1016270042.0,rebny,RPLU-63220229667
168 East 100th Street,801,1016270042.0,rebny,RPLU-63220229657
168 Sixth Avenue,2,3009470052.0,rebny,RPLU-63220209224
169 East 102nd Street,,1016307501,agent,
169 Lexington Ave,,1008860026,agent,
17 Park Avenue,301,1008900005.0,rebny,RPLU-63220203101
17 Park Avenue,202,1008900005.0,rebny,RPLU-63220203110
17 West 125th Street,4G,1017230023.0,rebny,RPLU-63220165929
17 West 67th Street,,1011200017,agent,
17 White Street,2B,1001780025.0,rebny,RPLU-63219661569
170 East 77th Street,,1014117502,agent,
170 East 87th Street,E6H,1015157503.0,rebny,RPLU-63219873008
170 East 87th Street,,1015157503,agent,
170 East 87th Street ,W11B,,agent,
170 East 88th Street,,1015160042,agent,
1700 York Avenue,8D,1015860001.0,rebny,RPLU-63220232321
1700 York Avenue,3C,1015860001.0,rebny,RPLU-63220232365
171 East 84th Street,,1015137501,agent,
171 West 73rd Street,,1011450105,agent,
173 East 64th Street,,1013990128,agent,
173 Perry Street,6/7,1006377504.0,rebny,RPLU-63220231644
173 Underhill Avenue,3,3011660004.0,rebny,RPLU-63220145716
174 Clermont Avenue,6A,3020747502.0,rebny,RPLU-63220074785
174 East 74th Street,,1014080040,agent,
175 East 79th Street,9D,1015080027.0,rebny,RPLU-63219340259
175 Eastern Parkway,2J,3011790108.0,rebny,RPLU-63220178989
175 Riverside Drive,,1012500067,agent,
175 West 73rd Street,,1011450001,agent,
175 West 95th Street,15H,1012267502.0,rebny,RPLU-63220180390
176 Lefferts Place,4,3020207502.0,rebny,RPLU-63220207930
1760 Second Avenue,4C,1015547501.0,rebny,RPLU-63220035997
177 Duane Street,4E,1001437502.0,rebny,RPLU-63219934054
177 East 79th Street,,1015080130,agent,
18 West 129th Street,,1017267501,agent,
18 West 48th Street,23C,1012637501.0,rebny,RPLU-63219183617
180 Cabrini blvd,95,1021790010.0,rebny,RPLU-63220026230
180 East End Ave,,1015850023,agent,
180 Franklin Ave,425,3019120040.0,rebny,NEST-115806
180 Franklin Ave,122,3019120040.0,rebny,NEST-115787
180 Franklin Ave,223,3019120040.0,rebny,NEST-113613
180 Franklin Ave,503,3019120040.0,rebny,NEST-115786
180 Franklin Ave,318,3019120040.0,rebny,NEST-115784
180 Franklin Ave,202,3019120040.0,rebny,NEST-115785
180 Franklin Ave,304,3019120040.0,rebny,NEST-115215
180 Riverside Drive,,1012510001,agent,
181 East 65th Street,,1014007501,agent,
181 East 90th Street,,1015197501,agent,
181 Front St,4G,3000410042.0,rebny,NEST-113636
181 Front St,10B - BALCONY,3000410042.0,rebny,NEST-105576
181 Front St,6A,3000410042.0,rebny,NEST-112739
181 Front St,4K,3000410042.0,rebny,NEST-115583
181 Front St,10A,3000410042.0,rebny,NEST-113470
181 Front St,7J,3000410042.0,rebny,NEST-112458
181 Front St,7E  BALCONY,3000410042.0,rebny,NEST-108941
181 Front St,1C GARDEN,3000410042.0,rebny,NEST-110460
181 Front St,5A,3000410042.0,rebny,NEST-116060
181 Front St,8D BALCONY ,3000410042.0,rebny,NEST-116061
181 Front St,3K,3000410042.0,rebny,NEST-113472
181 Front St,4C,3000410042.0,rebny,NEST-115529
184 Thompson Street,2A,1005257506.0,rebny,RPLU-63220072384
185 18th Street,509,3051220001.0,rebny,RPLU-63219383714
186 East 2nd Street,8,1003987502.0,rebny,RPLU-63220191074
188 East 70th Street,,1014047503,agent,
188 East 75th Street,,1014090043,agent,
188 East 76th Street,,1014107503,agent,
19 Greenwich Avenue,2B,1006100054.0,rebny,RPLU-63220264177
19 Greenwich Avenue,2C,1006100054.0,rebny,RPLU-63220264272
190 East 72nd Street,,1014060041,agent,
190 Terrace Place,2,3052560094.0,rebny,RPLU-63220219006
1901 Madison Avenue,429,1017480001.0,rebny,RPLU-63220219247
194 21st Street,4G,3006430011.0,rebny,RPLU-63219977909
194 21st Street,4A,3006430011.0,rebny,RPLU-63219977904
194 21st Street,5C,3006430011.0,rebny,RPLU-63219977912
194 21st Street,2D,3006430011.0,rebny,RPLU-63219977900
194 21st Street,3D,3006430011.0,rebny,RPLU-63219977902
194 21st Street,2A,3006430011.0,rebny,RPLU-63219977898
195 15th Street,B4,3010417501.0,rebny,RPLU-63220078439
196 East 75th Street,,1014090040,agent,
196 Pinehurst Avenue,1J,1021790156.0,rebny,RPLU-63220127112
1965 Broadway,,1011387502,agent,
199 Prince Street,27,1005187502.0,rebny,RPLU-63220095729
199 Prince Street,22,1005187502.0,rebny,RPLU-63220126449
1st Ave,,1004280001,agent,
2 Beekman Place,,1013610012,agent,
2 Columbus Ave,,1011317501,agent,
2 East 55th Street,,1012907502,agent,
2 East End Ave,,1015760023,agent,
2 Tudor City Place,,1013330018,agent,
2 Tudor City Place ,7BS,,agent,
2-40 51st Avenue,3J,4000157501.0,rebny,RPLU-63220155644
20 East 35th Street,,1008647501,agent,
20 East 84th Street,,1014950059,agent,
20 East 88th Street,,1014990060,agent,
20 East 9th Street,22D,1005660018.0,rebny,RPLU-63219875184
20 East 9th Street,6H,1005660018.0,rebny,RPLU-63220011804
20 West 16th Street,PARLOR/DUP,1008170070.0,rebny,RPLU-63220168311
20 West 64th Street,39S,1011167501.0,rebny,RPLU-63220180557
20 West 72nd Street,,1011240046,agent,
20 West Street,,1000157502,agent,
200 Central Park S,,1010300029,agent,
200 Central Park South,10R,1010300029.0,rebny,RPLU-63220206216
200 Central Park South,4P,1010300029.0,rebny,RPLU-63220211836
200 Chambers Street,2E,1001427502.0,rebny,RPLU-63220164010
200 East 24th Street,,1009040050,agent,
200 East 32nd Street,28E,1009127502.0,rebny,RPLU-63220069235
200 East 32nd Street,,1009127502,agent,
200 East 58th Street,,1013317501,agent,
200 East 61st Street,26G,1014157501.0,rebny,RPLU-63220206991
200 East 61st Street,7B,1014157501.0,rebny,RPLU-63220075545
200 East 61st Street,6B,1014157501.0,rebny,RPLU-63218870921
200 East 61st Street,7F,1014157501.0,rebny,RPLU-63220055134
200 East 61st Street,22F,1014157501.0,rebny,RPLU-63220183026
200 East 62nd Street,,1014167501,agent,
200 East 66th Street,,1014207501,agent,
200 East 69th Street,,1014237501,agent,
200 East 74th Street,,1014280045,agent,
200 East 79th Street,,1014337502,agent,
200 East 94th Street,,1015397502,agent,
200 East End Ave,,1015860021,agent,
200 East End Avenue,,1015860021,agent,
200 Riverside Boulevard,,1011717501,agent,
200 Water Street,5A,3000417502.0,rebny,RPLU-63219809013
200 West 79th Street,,1011707501,agent,
200 West 86th Street,,1012330033,agent,
200 West End Ave,,1011587506,agent,
201 East 19th Street,15L,1009000001.0,rebny,RPLU-63220167791
201 East 36th Street,,1009177501,agent,
201 East 66th Street,,1014210001,agent,
201 East 77th Street,,1014320001,agent,
201 East 79th Street,,1015250001,agent,
201 East 80th Street,,1015267501,agent,
201 West 70th Street,,1011620029,agent,
201 West 72nd Street,,1011647501,agent,
2025 Broadway,,1011417502,agent,
2025 Broadway,20K,1011417502.0,rebny,RPLU-63220137519
2025 Broadway ,2GH,,agent,
203 East 89th Street,,1015350005,agent,
203 Halsey Street,,3018390058.0,rebny,RPLU-63220138310
203 West 87th Street,,1012350026,agent,
203 West 90th Street,,1012387503,agent,
204 East 90th Street,,1015350042,agent,
204 Spring Street,20,1004900024.0,rebny,RPLU-63220194099
205 East 59th Street,20A,1014147502.0,rebny,RPLU-63220206619
205 East 63rd Street,,1014180001,agent,
205 East 77th Street,,1014320005,agent,
205 East 78th Street,,1014337501,agent,
205 East 78th Street,6C,1014337501.0,rebny,RPLU-63220223411
205 East 85th Street,,1015317501,agent,
205 Pinehurst Avenue,2L,1021790207.0,rebny,RPLU-63220142720
205 Pinehurst Avenue,5J,1021790207.0,rebny,RPLU-63220126942
205 Water Street,5D,3000317503.0,rebny,RPLU-63220031264
205 Water Street,2L,3000317503.0,rebny,RPLU-63220072378
205 West 54th Street,,1010260026,agent,
205 West 57th Street,,1010290027,agent,
205 West 76th Street,,1011687501,agent,
205 West 84th Street,,1012320027,agent,
205 West End Ave,,1011797503,agent,
206 East 18th Street ,4,1008980001,agent,
206 East 35th Street,4,1009150058.0,rebny,RPLU-63220157793
206 East 35th Street,3,1009150058.0,rebny,RPLU-63220157774
206 East 73rd Street,,1014277501,agent,
206 East 95th Street,4A,1015407501.0,rebny,RPLU-63220224103
206 East 95th Street,,1015407501,agent,
208 East Broadway,,1003110013,agent,
208 West 119th Street,5M,1019240021.0,rebny,RPLU-63219993204
209 East 56th Street,,1013300007,agent,
209 West 104th Street,,1018767501,agent,
2098 Frederick Douglass,10P,1018297501.0,rebny,RPLU-63220150014
21 East 61st Street,,1013760015,agent,
21 East 87th Street,,1014990014,agent,
21-21 31st Street,2H,1008330028.0,rebny,RPLU-63219988789
21-21 31st Street,4C,1008330028.0,rebny,RPLU-63219988799
21-21 31st Street,3F,1008330028.0,rebny,RPLU-63219988842
21-21 31st Street,2C,1008330028.0,rebny,RPLU-63219988867
210 East 15th Street,,1008960039,agent,
210 East 35th Street,2A,1009150056.0,rebny,RPLU-63220123278
210 East 35th Street,1,1009150056.0,rebny,RPLU-63220123289
210 East 35th Street,2B,1009150056.0,rebny,RPLU-63220123287
210 East 47th Street,,1013207503,agent,
210 East 58th Street,7G,1013310039.0,rebny,RPLU-63220232128
210 East 58th Street,3J,1013310039.0,rebny,RPLU-63220066655
210 East 73rd Street,1C,1014270038.0,rebny,RPLU-63220234071
210 East 73rd Street,MEDICAL,1014270038.0,rebny,RPLU-63220234097
210 Riverside Drive,,1012520034,agent,
210 West 103rd Street,,1018740037,agent,
2109 Broadway,,1011657503,agent,
211 Central Park W,,1011950029,agent,
211 East 53rd Street,,1013277501,agent,
211 Thompson Street,,1005390031,agent,
211 West 252nd Street,,2058343001.0,rebny,RPLU-63220201371
212 East 70th Street,2D,1014247503.0,rebny,RPLU-63219846036
212 East 77th Street,,1014310039,agent,
212 East 77th Street,3C,1014310039.0,rebny,RPLU-63220166053
212 East 77th Street,4E,1014310039.0,rebny,RPLU-63219882798
213 West 122nd Street,1,1019280025.0,rebny,RPLU-63220216124
213 West 85th Street,1B,1012330023.0,rebny,RPLU-63220168087
2134 Second Avenue,5D,1016817501.0,rebny,RPLU-63219833905
214 West 16th Street,5S,1007650052.0,rebny,RPLU-63220232536
215 East 24th Street,,1009050006,agent,
215 East 68th Street,32J,1014230010.0,rebny,RPLU-63220254001
215 East 77th Street,3E,1014327501.0,rebny,RPLU-63220206440
215 East 79th Street,7F,1015250009.0,rebny,RPLU-63220145922
215 West 105th Street,1E,1018770025.0,rebny,RPLU-63219867831
215 West 116th Street,7D,1019220020.0,rebny,RPLU-63220155531
215 West 29th Street ,2,1007790035,agent,
215 West 91st Street ,105,1012390029,agent,
215 West 95th Street,10D,1012437501.0,rebny,RPLU-63220163503
215 West 98th Street,,1018707502,agent,
2159 First Avenue,5B,1016830027.0,rebny,RPLU-63220065759
216 East 75th Street,,1014297501,agent,
219 West 81st Street,,1012297502,agent,
22 North 6th Street,8E,3023327502.0,rebny,RPLU-63220164512
22 North 6th Street,10E,3023327502.0,rebny,RPLU-63220165382
22 Riverside Drive,,1011847501,agent,
22 West 15th Street,12A,1008167501.0,rebny,RPLU-63220242204
220 Congress Street,3B,3003020009.0,rebny,RPLU-63220084440
220 East 54th Street,,1013270037,agent,
220 East 57th Street,,1013300038,agent,
220 East 60th Street,12K,1014147501.0,rebny,RPLU-63220240550
220 East 60th Street,,1014147501,agent,
220 East 60th Street,4G,1014147501.0,rebny,RPLU-63220219755
220 East 65th Street,9H,1014197503.0,rebny,RPLU-63220023356
221 East 78th Street,,1014330007,agent,
222 East 80th Street,5E,1015250036.0,rebny,RPLU-63219357369
222 Riverside Drive,,1012537502,agent,
222 West 135th Street,1B,1019407503.0,rebny,RPLU-63220063937
222 West 14th Street,2L,1006187501.0,rebny,RPLU-63220220872
222 West 83rd Street,15H,1012300043.0,rebny,RPLU-63220078208
222 West 83rd Street,11E,1012300043.0,rebny,RPLU-63220203681
222 West 83rd Street,15E,1012300043.0,rebny,RPLU-63219989670
222 West 83rd Street,6A,1012300043.0,rebny,RPLU-63220203209
222 West 83rd Street,5F,1012300043.0,rebny,RPLU-63220218856
222 West 83rd Street,4D,1012300043.0,rebny,RPLU-63220203241
222 West 83rd Street,8E,1012300043.0,rebny,RPLU-63220203665
223 East 21st Street,RH1,1009020017.0,rebny,RPLU-63220134414
223 East 21st Street,4F,1009020017.0,rebny,RPLU-63220148261
223 Hancock Street,PARLOR,3018330051.0,rebny,RPLU-63220136808
223 Hancock Street,GARDEN,3018330051.0,rebny,RPLU-63220131578
224 Riverside Drive,,1012530004,agent,
225 Central Park W,,1011960029,agent,
225 East 34th Street,,1009157501,agent,
225 East 36th Street,,1009170017,agent,
225 East 46th Street,,1013207504,agent,
225 East 47th Street,,1013210011,agent,
225 East 73rd Street,,1014280013,agent,
225 West 25th Street,4F,1007750022.0,rebny,RPLU-63220199232
225 West 83rd Street,,1012317501,agent,
225 West 86th Street,,1012347503,agent,
2250 Broadway,,1012287501,agent,
226 West 97th Street,8B,1018680040.0,rebny,RPLU-63220256572
227 East 57th Street,,1013310014,agent,
227 East 87th Street,C,1015330013.0,rebny,RPLU-63219840165
228 East 13th Street ,8,1004680015,agent,
2280 Frederick Douglass,7D,1019287506.0,rebny,RPLU-63220165504
229 East 24th Street,,1009057501,agent,
229 East 28th Street,,1009090015,agent,
229 Sullivan Street,5D,1005390011.0,rebny,RPLU-63220210728
229 West 97th Street,,1018697501,agent,
23-23 31st Avenue,2H,4005707501.0,rebny,RPLU-63220221450
230 East 15th Street,4C,1008960032.0,rebny,RPLU-63220111689
230 East 48th Street,2D,1013210034.0,rebny,RPLU-63220152024
230 East 52nd Street,3A,1013257502.0,rebny,RPLU-63220153950
230 West End Ave,,1011620001,agent,
231 East 76th Street,2I,1014310016.0,rebny,RPLU-63220220180
231 East 76th Street,7A,1014310016.0,rebny,RPLU-63220243581
231 East 76th Street,4F,1014310016.0,rebny,RPLU-63220199935
233 East 54th Street,,1013280018,agent,
233 East 70th Street,4T,1014257501.0,rebny,RPLU-63220061666
233 East 70th Street,,1014257501,agent,
233 East 86th Street,,1015320015,agent,
234 East 23rd Street,,1009037504,agent,
234 East 35th Street,,1009150044,agent,
235 East 40th Street,2I,1013147501.0,rebny,RPLU-63220117910
235 East 40th Street,,1013147501,agent,
235 East 40th Street,4C,1013147501.0,rebny,RPLU-63220201269
235 East 49th Street,,1013230015,agent,
235 East 55th Street,36A,1013297501.0,rebny,RPLU-63220055121
235 East 73rd Street,,1014280017,agent,
235 Lexington Avenue,8,1008890063.0,rebny,RPLU-63220172364
235 Sullivan Street,6,1005390013.0,rebny,RPLU-63220010544
235 West 102nd Street,,1018747501,agent,
235 West 108th Street,,1018800010,agent,
235 West End Ave,,1011827501,agent,
2351 Adam Clayton Powell,410,1020067502.0,rebny,RPLU-63218679736
2351 Adam Clayton Powell,PH5,1020067502.0,rebny,RPLU-63219341928
2351 Adam Clayton Powell,419,1020067502.0,rebny,RPLU-63220074311
2351 Adam Clayton Powell,614,1020067502.0,rebny,RPLU-63218679569
2351 Adam Clayton Powell,217,1020067502.0,rebny,RPLU-63218677383
2351 Adam Clayton Powell,213,1020067502.0,rebny,RPLU-63219861940
2351 Adam Clayton Powell,504,1020067502.0,rebny,RPLU-63218679719
2351 Adam Clayton Powell,216,1020067502.0,rebny,RPLU-63218671635
2351 Adam Clayton Powell,PH4,1020067502.0,rebny,RPLU-63219341618
2351 Adam Clayton Powell,320,1020067502.0,rebny,RPLU-63218678149
2351 Adam Clayton Powell,316,1020067502.0,rebny,RPLU-63218678079
2351 Adam Clayton Powell,PH14,1020067502.0,rebny,RPLU-63220074491
236 East 47th Street,19A,1013207505.0,rebny,RPLU-63220231194
236 East 80th Street,12A,1015250031.0,rebny,RPLU-63220266066
236 East 80th Street,4,1015250031.0,rebny,RPLU-63220266067
236 East 80th Street,22,1015250031.0,rebny,RPLU-63220265546
237 West 109th Street,,1018810013,agent,
2373 Broadway,707/708,1012347501.0,rebny,RPLU-63219959246
2373 Broadway,1428,1012347501.0,rebny,RPLU-63220206613
2373 Broadway,2006,1012347501.0,rebny,RPLU-63220148727
2373 Broadway,906,1012347501.0,rebny,RPLU-63220136420
2373 Broadway ,430,,agent,
2373 Broadway ,1509,,agent,
2373 Broadway ,908,,agent,
238 Madison Avenue,4A,1008670016.0,rebny,RPLU-63220157868
238 Madison Avenue,4B,1008670016.0,rebny,RPLU-63220157870
238 Madison Avenue,1B,1008670016.0,rebny,RPLU-63220157834
238 West 106th Street,,1018770042,agent,
238 West 108th Street,,1018797501,agent,
239 East 79th Street,,1015250021,agent,
24 West 55th Street ,PHA,1010640036,agent,
240 East 24th Street,,1009040029,agent,
240 East 46th Street,,1013197501,agent,
240 East 47th Street,,1013207501,agent,
240 East 55th Street,,1013280030,agent,
240 East 76th Street,,1014307501,agent,
240 Riverside Boulevard,,1011717503,agent,
241 East 76th Street,,1014310021,agent,
241 West 97th Street,5M,1018697503.0,rebny,RPLU-63220072872
242 East 25th Street,,1009050035,agent,
242 East 25th Street,2D,1009050035.0,rebny,RPLU-63220141000
242 East 38th Street,,1009180035,agent,
242 West 104th Street,1RE,1018750056.0,rebny,RPLU-63220190732
243 Fourth Avenue,6B,3009580004.0,rebny,RPLU-63219295272
2434 East 27th Street,,3074220719.0,rebny,RPLU-63220125635
244 Madison Ave,,1008670057,agent,
244 Riverside Drive,,1018870036,agent,
245 East 24th Street,,1009050026,agent,
245 East 24th Street,8K,1009050026.0,rebny,RPLU-63220220485
245 East 25th Street,19L,1009060024.0,rebny,RPLU-63220005363
245 East 35th Street,,1009160023,agent,
245 East 37th Street,3B,1009180025.0,rebny,RPLU-63220160546
245 East 93rd Street,,1015397501,agent,
245 West 104th Street,,1018760007,agent,
245 West 75th Street,1C,1011670007.0,rebny,RPLU-63220045813
245 West 99th Street,,1018717501,agent,
2451 Eastchester Road,B,2044770042.0,rebny,RPLU-63220087111
246 East 110th Street,3,1016590029.0,rebny,RPLU-63220219641
246 East 53rd Street,10,1013260029.0,rebny,RPLU-63220027640
247 West 46th Street,,1010187502,agent,
247 West 72nd Street,5RE,1011640011.0,rebny,RPLU-63220230646
249 19th Street,1B,3008797505.0,rebny,RPLU-63220207983
249 East 77th Street,2RW,1014320020.0,rebny,RPLU-63220069130
25 Chittenden Avenue,5A,1021790261.0,rebny,RPLU-63220055594
25 East 83rd Street,,1014957501,agent,
25 Tudor City Place,,1013340022,agent,
25 West 54th Street,,1012700017,agent,
25 West 54th Street,4C,1012700017.0,rebny,RPLU-63220042874
25 West 89th Street,2,1012030023.0,rebny,RPLU-63220170870
25 West 89th Street,1,1012030023.0,rebny,RPLU-63220170546
25 West 89th Street,3,1012030023.0,rebny,RPLU-63220174231
25 West 89th Street,4,1012030023.0,rebny,RPLU-63220174322
25-11 157th Street,2,4048650005.0,rebny,RPLU-63220231266
250 East 30th Street,,1009107501,agent,
250 East 49th Street,,1013227502,agent,
250 East 49th Street,20CD,1013227502.0,rebny,RPLU-63220172399
250 East 53rd Street,,1013267501,agent,
250 East 54th Street,,1013277502,agent,
250 East 65th Street,4G,1014197501.0,rebny,RPLU-63220268875
2500 Johnson Avenue,20L,2057160500.0,rebny,RPLU-63220049677
2500 Johnson Avenue,8P,2057160500.0,rebny,RPLU-63219964125
2500 Johnson Avenue,PHC,2057160500.0,rebny,RPLU-63220234888
251 East 32nd Street,21E,1009130028.0,rebny,RPLU-63220031465
251 East 32nd Street,,1009130028,agent,
251 Pacific Street,16,3001810039.0,rebny,RPLU-63220148529
251 West 71st Street,6A,1011630011.0,rebny,RPLU-63220139629
252 East 57th Street,,1013307502,agent,
252 South Street,8E,1002487501.0,rebny,RPLU-63220209120
252 West 85th Street,,1012320057,agent,
2521 Palisade avenue,4B,2057457501.0,rebny,RPLU-63220005421
253 West 73rd Street,,1011657501,agent,
255 East 49th Street,,1013237501,agent,
255 West 98th Street,,1018700005,agent,
255 West End Ave,,1011830032,agent,
2550 Independence Ave,2C,2057430203.0,rebny,RPLU-63220159171
256 West 123rd Street,5A,1019287503.0,rebny,RPLU-63220208902
257 Central Park W,,1011990036,agent,
258 Riverside Drive,,1018870065,agent,
258 West 117th Street,42W,1019220049.0,rebny,RPLU-63220058756
2599 Broadway,MEDICAL,1018697503.0,rebny,RPLU-63220186973
26 Bedford Street,3A,1005270094.0,rebny,RPLU-63220195190
26 East 81st Street,5N,1014920056.0,rebny,RPLU-63220165374
26 East 81st Street,3S,1014920056.0,rebny,RPLU-63220165384
26 West 131st Street,2D,1017280050.0,rebny,RPLU-63220094133
260 West End Ave,,1011630061,agent,
262 West 121st Street,LAND,1019260058.0,rebny,RPLU-63220264782
2621 PALISADE AVENUE,6FGE,2057450001.0,rebny,RPLU-63220251759
2621 PALISADE AVENUE,6FG,2057450001.0,rebny,RPLU-63220224036
2621 PALISADE AVENUE,6E,2057450001.0,rebny,RPLU-63220078758
2621 PALISADE AVENUE,8A,2057450001.0,rebny,RPLU-63220242627
2621 PALISADE AVENUE,7C,2057450001.0,rebny,RPLU-63220189821
263 12th Street,2,3010220062.0,rebny,RPLU-63220165282
266 East Broadway,,1003150001,agent,
269 Bennett Ave,,1021800633,agent,
27 East 65th Street,11C,1013800023.0,rebny,RPLU-63220082101
27-21 44th Drive,1201,4002687501.0,rebny,RPLU-63220195227
27-21 44th Drive,2103,4002687501.0,rebny,RPLU-63218517516
270 Seaman Ave,,1022500072,agent,
272 West 107th Street,,1018787501,agent,
2727 Palisade avenue,14E,2057450012.0,rebny,RPLU-63220067604
2727 Palisade avenue,15K,2057450012.0,rebny,RPLU-63220190736
275 Clinton Avenue,4,3019160001.0,rebny,RPLU-63219665638
275 West 73rd Street,GARDEN,1011650104.0,rebny,RPLU-63220221120
277 West End Ave,,1011840019,agent,
279 West 117th Street,2G,1019230001.0,rebny,RPLU-63220151299
279 West 117th Street,1T,1019230001.0,rebny,RPLU-63220074103
279 West 117th Street,6S,1019230001.0,rebny,RPLU-63211067510
279 West 117th Street,4H,1019230001.0,rebny,RPLU-63220160558
279 West 117th Street,6T,1019230001.0,rebny,RPLU-63220059226
288 Lexington Ave,,1008920020,agent,
29 East 64th Street,,1013790021,agent,
29 Sterling Place,GARDEN,3009410067.0,rebny,RPLU-63220232399
29 West 74th Street,,1011270017,agent,
293 Church Street,4,1001930020.0,rebny,RPLU-63220248853
293 Church Street,5,1001930020.0,rebny,RPLU-63220157701
295 Greenwich Street,9O,1001377502.0,rebny,RPLU-63220175734
3 East 9th Street,4R,1005670033.0,rebny,RPLU-63220194680
30 East 37th Street,,1008667502,agent,
30 Park Avenue,15B,1008650040.0,rebny,RPLU-63220139375
30 Riverside Boulevard,,1011710154,agent,
30 Sutton Place ,PHC,,agent,
30 West 63rd Street,12B,1011157503.0,rebny,RPLU-63220111841
30 West 74th Street ,2D,1011500115,agent,
300 Central Park W,,1012040029,agent,
300 East 23rd Street,17B,1009287504.0,rebny,RPLU-63220160649
300 East 40th Street,28J,1009457501.0,rebny,RPLU-63220199204
300 East 40th Street,18B,1009457501.0,rebny,RPLU-63220019938
300 East 40th Street,9A,1009457501.0,rebny,RPLU-63220165179
300 East 40th Street,23V,1009457501.0,rebny,RPLU-63220198497
300 East 59th Street,,1013510001,agent,
300 East 62nd Street,,1014367501,agent,
300 East 71st Street,,1014457501,agent,
300 East 90th Street,,1015527502,agent,
300 West 110th Street,,1018457501,agent,
300 West 145th Street,2A,1020447501.0,rebny,RPLU-63220222335
301 East 45th Street,,1013387501,agent,
301 East 61st Street,15B,1014367504.0,rebny,RPLU-63220120698
301 East 61st Street,9B,1014367504.0,rebny,RPLU-63219451441
301 East 61st Street,PH,1014367504.0,rebny,RPLU-63220209229
301 East 61st Street,9A,1014367504.0,rebny,RPLU-63220092132
301 East 61st Street,15B,1014367504.0,rebny,RPLU-63219977507
301 East 61st Street,6A,1014367504.0,rebny,RPLU-63219482502
301 East 61st Street,6A,1014367504.0,rebny,RPLU-63220120697
301 East 61st Street,PH,1014367504.0,rebny,RPLU-63220209298
301 East 61st Street,9B,1014367504.0,rebny,RPLU-63220120536
301 East 62nd Street,,1014370001,agent,
301 East 63rd Street,,1014380001,agent,
301 East 69th Street,,1014447501,agent,
301 East 75th Street ,12HJ,,agent,
301 East 78th Street,,1014530001,agent,
301 East 79th Street,29M,1015427501.0,rebny,RPLU-63220131707
301 East 87th Street,,1015500001,agent,
301 West 118th Street,5J,1019457504.0,rebny,RPLU-63220227366
302 Metropolitan Avenue,4F,3023670021.0,rebny,RPLU-63220150181
303 East 33rd Street,,1009397501,agent,
303 East 37th Street,,1009430001,agent,
303 East 57th Street,29E,1013500001.0,rebny,RPLU-63219746705
303 East 57th Street,29E,1013500001.0,rebny,RPLU-63218106818
303 East 57th Street,30E,1013500001.0,rebny,RPLU-63220172445
303 East 57th Street,25B,1013500001.0,rebny,RPLU-63220243088
303 East 57th Street,41G,1013500001.0,rebny,RPLU-63219977578
303 East 57th Street,30E,1013500001.0,rebny,RPLU-63220219177
303 East 57th Street,18C,1013500001.0,rebny,RPLU-63219752432
303 East 57th Street,39DE,1013500001.0,rebny,RPLU-63219182658
303 East 57th Street,,1013500001,agent,
303 East 57th Street,28B,1013500001.0,rebny,RPLU-63219931586
303 East 57th Street,24B,1013500001.0,rebny,RPLU-63220030815
303 East 57th Street,45B,1013500001.0,rebny,RPLU-63218941962
303 East 60th Street,,1014357501,agent,
303 West 116th Street,,1019430128.0,rebny,RPLU-63220203173
303 West 66th Street,,1011790019,agent,
304 East 65th Street,,1014397501,agent,
304 West 10th Street,4C,1006360013.0,rebny,RPLU-63220220631
305 East 24th Street,,1009300001,agent,
305 East 40th Street,,1013330001,agent,
305 East 40th Street ,3P,1013330001,agent,
305 East 51st Street,19A,1013447503.0,rebny,RPLU-63220176389
305 East 51st Street,,1013447503,agent,
305 East 72nd Street,,1014477501,agent,
305 East 88th Street,,1015510005,agent,
305 East 91st Street,2C,1015540005.0,rebny,RPLU-63220167991
305 Fifth Avenue,4B,3009750006.0,rebny,RPLU-63220174373
305 West 52nd Street,5B,1010437501.0,rebny,RPLU-63219626231
3050 Fairfield Avenue,3B,2057360006.0,rebny,RPLU-63220234002
3050 Fairfield Avenue,4B,2057360006.0,rebny,RPLU-63220046046
308 East 38th Street,201,1009437502.0,rebny,RPLU-63219988980
308 East 79th Street,,1014530043,agent,
309 East 108th Street,,1016807501,agent,
309 East 49th Street,,1013427501,agent,
309 East 49th Street,4B,1013427501.0,rebny,RPLU-63220145678
309 East 87th Street,,1015500007,agent,
309 West 75th Street,,1011850015,agent,
309 West 82nd Street,1A,1012450015.0,rebny,RPLU-63220190734
309 West 82nd Street,,1012450015,agent,
31 East 28th Street,,1008587501,agent,
310 East 23rd Street,,1009287502,agent,
310 East 46th Street,,1013380005,agent,
310 East 46th Street,19G,1013380005.0,rebny,RPLU-63220078652
310 East 53rd Street,,1013457501,agent,
310 East 70th Street,,1014440043,agent,
310 Lexington Ave,,1008930020,agent,
310 Riverside Drive,,1018900040,agent,
310 West 122nd Street,5W,1019480043.0,rebny,RPLU-63219770580
310 West 52nd Street,,1010427502,agent,
310 West 56th Street,,1010460038,agent,
310 West 72nd Street,,1011830037,agent,
310 West 94th Street,,1012520065,agent,
3103 Fairfield Avenue,7D,2057420120.0,rebny,RPLU-63220180081
311 East 38th Street,17D,1009447501.0,rebny,RPLU-63220207297
311 East 60th Street,1,1014350008.0,rebny,RPLU-63220176339
311 East 71st Street,,1014460008,agent,
311 West Broadway,5D,1002287502.0,rebny,RPLU-63220020272
311 West Broadway,8C,1002287502.0,rebny,RPLU-63220051144
312 West 23rd Street,,1007467506,agent,
313 East 84th Street,,1015470008,agent,
313 West 117th Street,3A/4A,1019440023.0,rebny,RPLU-63220213937
313 West 119th Street,5C,1019467501.0,rebny,RPLU-63219808203
313 West 22nd Street,,1007467504,agent,
3135 Johnson Avenue,6H,2057390257.0,rebny,RPLU-63220095437
314 West 100th Street,,1018887502,agent,
315 East 69th Street,,1014440008,agent,
315 East 72nd Street,,1014470009,agent,
315 East 88th Street,,1015510005,agent,
315 West 55th Street,,1010460023,agent,
316 West 103rd Street,2F,1018900034.0,rebny,RPLU-63220200618
317 West 112th Street,,1018470011.0,rebny,RPLU-63219211961
317 West 93rd Street,,1012520041,agent,
319 East 105th Street,,1016777503,agent,
319 West 18th Street,,1007420022,agent,
32 West 130th Street,,1017270053.0,rebny,RPLU-63220123243
320 East 42nd Street,,1013340041,agent,
320 East 54th Street,6G,1013467501.0,rebny,RPLU-63220141034
320 East 57th Street,,1013490044,agent,
320 West 115th Street,3FL,1018487506.0,rebny,RPLU-63220219095
320 West 115th Street,3,1018487506.0,rebny,RPLU-63220214358
320 West 76th Street,,1011850032,agent,
320 West 87th Street,,1012480041,agent,
320 West 89th Street,1C,1012500047.0,rebny,RPLU-63220256133
321 East 43rd Street,,1013360010,agent,
321 East 45th Street,,1013380012,agent,
321 East 54th Street,,1013470009,agent,
321 West 78th Street,,1011860059,agent,
321 West 90th Street,,1012510008,agent,
322 East 57th Street,,1013490041,agent,
322 West 57th Street,23F,1010477503.0,rebny,RPLU-63220140923
322 West 57th Street,28U,1010477503.0,rebny,RPLU-63220048099
322 West 57th Street,31G,1010477503.0,rebny,RPLU-63220211059
322 West 57th Street,PH57K,1010477503.0,rebny,RPLU-63220150110
323 West 4th Street,4A,1006150056.0,rebny,RPLU-63220226460
324 West 83rd Street,,1012450037,agent,
325 East 18th Street,,1009240017,agent,
325 West 112th Street,THB,1018470007.0,rebny,RPLU-63220083765
325 West 45th Street,,1010360014,agent,
325 West End Avenue,3D,1011850019.0,rebny,RPLU-63220039372
326 Bond Street,2F,3004370041.0,rebny,RPLU-63220133747
328 West 96th Street,,1012530090,agent,
329 Hancock Street,1,3018350071.0,rebny,RPLU-63220208980
33 Frost Street,2B,3027310035.0,rebny,RPLU-63220101231
330 East 33rd Street,,1009367501,agent,
330 East 33rd Street,14H,1009367501.0,rebny,RPLU-63220180937
330 East 38th Street,55FG,1009437501.0,rebny,RPLU-63220050487
330 East 38th Street,55H,1009437501.0,rebny,RPLU-63219830247
330 East 38th Street,55FGH,1009437501.0,rebny,RPLU-63220050434
330 East 38th Street,14H,1009437501.0,rebny,RPLU-63220076337
330 East 72nd Street,,1014467503,agent,
330 East 75th Street,,1014497501,agent,
330 Haven Ave,,1021770234,agent,
330 West 85th Street,2F,1012460044.0,rebny,RPLU-63220136809
330 West 85th Street,6B,1012460044.0,rebny,RPLU-63220221710
331 West 89th Street,,1012500075,agent,
332 East 84th Street,,1015460035,agent,
332 West 101st Street,,1018890033,agent,
333 East 46th Street,,1013390012,agent,
333 East 53rd Street,,1013460014,agent,
333 East 55th Street,,1013480016,agent,
333 East 57th Street,,1013500014,agent,
333 East 66th Street,,1014410017,agent,
333 East 68th Street,,1014430011,agent,
333 Park Ave S,,1008800092,agent,
333 West 57th Street,,1010487504,agent,
3333 Henry Hudson Parkway,7W,2059010001.0,rebny,RPLU-63220104524
3333 Henry Hudson Parkway,8F,2059010001.0,rebny,RPLU-63220249633
3333 Henry Hudson Parkway,8F,2059010001.0,rebny,RPLU-63220249718
334 West 87th Street,,1012480049,agent,
335 East 51st Street,,1013447501,agent,
336 East 50th Street,,1013420037,agent,
336 West End Ave,,1011670061,agent,
337 East 50th Street,,1013430016,agent,
337 West 85th Street,,1012470018,agent,
34 East 38th Street,,1008670046,agent,
34 North 7th Street,3G,3023247502.0,rebny,RPLU-63220142399
340 East 52nd Street,PHA,1013440033.0,rebny,RPLU-63220176365
340 East 64th Street,,1014387501,agent,
340 East 80th Street,,1015420019,agent,
340 East 93rd Street,6F,1015550023.0,rebny,RPLU-63219709242
340 West 86th Street,,1012477501,agent,
342 9th Street,3,3010110023.0,rebny,RPLU-63220047999
342 9th Street,3rd                                           floor,3010110023.0,rebny,RPLU-63220091946
342 East 110th Street,,1016817502,agent,
344 West 49th Street,4G,1010390057.0,rebny,RPLU-63220169526
345 Bay Ridge Parkway,6B,3059290058.0,rebny,RPLU-63220207183
345 East 50th Street,,1013437504,agent,
345 East 56th Street,,1013497501,agent,
345 East 69th Street,,1014440023,agent,
345 East 77th Street,,1014520019,agent,
345 East 81st Street,,1015440019,agent,
345 West 14th Street,8D,1007387504.0,rebny,RPLU-63220174356
345 West 21st Street,3C,1007450012.0,rebny,RPLU-63220159463
345 West 70th Street,,1011820012,agent,
347 East 53rd Street,2A,1013460020.0,rebny,RPLU-63220153923
348 Lenox Avenue,COMMERCIAL,1017250072.0,rebny,RPLU-63219925533
348 West 36th Street,,1007590068,agent,
348 West 38th Street,,1007610059,agent,
35 Howard Street,5,1002090007.0,rebny,RPLU-63220082670
35 Park Ave,,1008910003,agent,
35 Park Avenue,,1008910003,agent,
35 Sutton Place,,1013720073,agent,
35 West 15th Street,12A,1008177503.0,rebny,RPLU-63220093791
35 West 15th Street,12A,1008177503.0,rebny,RPLU-63220132349
35 West 82nd Street,,1011960013,agent,
35 West 90th Street,5F,1012040016.0,rebny,RPLU-63219547063
350 East 57th Street,,1013490032,agent,
350 East 82nd Street,,1015447501,agent,
350 East 82nd Street,10B,1015447501.0,rebny,RPLU-63220173184
350 West 42nd Street,,1010327501,agent,
350 West 50th Street,,1006400044,agent,
350 West 53rd Street,5G,1010437503.0,rebny,RPLU-63220220548
351 East 50th Street,,1013430021,agent,
351 East 51st Street,PH1,1013447502.0,rebny,RPLU-63218965925
351 East 51st Street,,1013447502,agent,
3515 Henry Hudson Parkway,10A,2059020193.0,rebny,RPLU-63219809703
353 East 104th Street,,1016767504,agent,
353 East 72nd Street,,1014470019,agent,
353 Riverside Drive,,1018920066,agent,
353 West 53rd Street,1W,1010440006.0,rebny,RPLU-63220035166
354 St Nicholas Avenue,COMM,1019540040.0,rebny,RPLU-63219823278
355 West 246th Street,,2058182108.0,rebny,RPLU-63220050962
3569 Broadway,10A,1020930029.0,rebny,RPLU-63220194472
357 East 57th Street,9G,1013507501.0,rebny,RPLU-63219846319
357 West 55th Street ,5/6A,1010460013,agent,
359 East 68th Street,,1014437501,agent,
360 West 36th Street,,1007590072,agent,
363 East 76th Street,,1014510023,agent,
3636 Fieldston road,7R,2057717501.0,rebny,RPLU-63220075756
37 West 127th Street,1,1017250120.0,rebny,RPLU-63220246258
37 West 12th Street,,1005760025,agent,
372 5th Ave,,1008370040,agent,
372 Central Park W,,1018337502,agent,
372 Central Park West,4U,1018337502.0,rebny,RPLU-63220194696
372 Central Park West,3V,1018337502.0,rebny,RPLU-63220206549
372 Central Park West,16J,1018337502.0,rebny,RPLU-63220178649
375 Lincoln Place,2E,3011760047.0,rebny,RPLU-63220198543
3777 Independence Avenue,12E,2059190436.0,rebny,RPLU-63220201571
3777 Independence Avenue,5F,2059190436.0,rebny,RPLU-63220146148
380 Union Street,2,3004360033.0,rebny,RPLU-63220238382
382 Central Park W,,1018337501,agent,
382 Central Park West,9W,1018337501.0,rebny,RPLU-63220240430
385 Grand Street,,1003110013,agent,
3850 Hudson Manor Terrace,2DEW,2059190460.0,rebny,RPLU-63220035702
386 Columbus Ave,,1011507502,agent,
388 Bleecker Street,3,1006220022.0,rebny,RPLU-63220146770
388 Bridge street,16E,3001527501.0,rebny,RPLU-63220188825
388 Bridge street,PH49E,3001527501.0,rebny,RPLU-63220137638
388 Bridge street,31C,3001527501.0,rebny,RPLU-63220231202
388 Bridge street,22J,3001527501.0,rebny,RPLU-63220246601
388 Bridge street,30H,3001527501.0,rebny,RPLU-63220263699
389 East 89th Street,,1015527504,agent,
39 Charles Street,GARDEN,1006120039.0,rebny,RPLU-63220263900
39 East 12th Street,708,1005640026.0,rebny,RPLU-63220101048
39 East 29th Street,,1008597502,agent,
39 Prospect Place,1,3009350060.0,rebny,RPLU-63219873890
39 Walker Street,4R,1001930028.0,rebny,RPLU-63220216227
3901 Independence Avenue,3E,2059200500.0,rebny,RPLU-63219903471
392 Central Park West,18B,1018337503.0,rebny,RPLU-63220151436
392 Central Park West,,1018337503,agent,
3927 Seton Avenue,,2049600073.0,rebny,RPLU-63220121785
393 West 49th Street,,1010407501,agent,
3935 Blackstone Avenue,1E,2059080210.0,rebny,RPLU-63220256962
395 Riverside Drive,,1018940067,agent,
399 President Street,1,3004370047.0,rebny,RPLU-63220198872
3rd Ave,,3001670013,agent,
4 Bogardus Place,,1021710120,agent,
4 Park Avenue,15G,1008630044.0,rebny,RPLU-63220231342
4 West 109th Street,,1018440037,agent,
4 West 21st Street,,1008220045,agent,
4-74 48th Ave,32E,4000180001.0,rebny,RPLU-63220251286
40 East 78th Street,,1013927501,agent,
40 East 94th Street,,1015057502,agent,
40 Mercer Street,,1004747506,agent,
40 West 24th Street,,1008250071,agent,
40 West 67th Street,,1011190047,agent,
400 Central Park W,,1018337504,agent,
400 East 17th Street,201,3051590013.0,rebny,RPLU-63220188016
400 East 51st Street,,1013627502,agent,
400 East 52nd Street,,1013630043,agent,
400 East 54th Street,31E,1013657502.0,rebny,RPLU-63219919347
400 East 54th Street,,1013657502,agent,
400 East 56th Street,,1013670001,agent,
400 East 56th Street,MEDICAL,1013670001.0,rebny,RPLU-63220045914
400 East 59th Street,,1013700046,agent,
400 East 67th Street,,1014617501,agent,
400 East 67th Street,12D,1014617501.0,rebny,RPLU-63220105560
400 East 70th Street,205,1014647501.0,rebny,RPLU-63220185404
400 East 70th Street,1108,1014647501.0,rebny,RPLU-63220172461
400 East 70th Street,205,1014647501.0,rebny,RPLU-63220201265
400 East 70th Street,1108,1014647501.0,rebny,RPLU-63220172505
400 East 77th Street,,1014710045,agent,
400 East 85th Street,,1015640047,agent,
400 East 90th Street,,1015697503,agent,
400 Fifth Avenue,42D,1015997501.0,rebny,RPLU-63220265607
400 Fifth Avenue,37A,1015997501.0,rebny,RPLU-63220209243
400 Fifth Avenue ,42D,1008387501,agent,
400 Lincoln Pl,1I,3011790103.0,rebny,RPLU-63219987085
401 East 74th Street,,1014697501,agent,
401 East 84th Street,,1015647502,agent,
401 East 86th Street,,1015660001,agent,
401 East 89th Street,10C,1015697502.0,rebny,RPLU-63219841523
402 East 74th Street,6A,1014680041.0,rebny,RPLU-63220155924
403 East 62nd Street,2A,1014577501.0,rebny,RPLU-63220208745
404 Park Ave S,,1008587502,agent,
406 West 51st Street,3C,1010600038.0,rebny,RPLU-63220254220
407 Park Ave S,,1008840001,agent,
41-15 45th Street,3D,4001560005.0,rebny,RPLU-63220072286
410 Central Park W,,1018360036,agent,
411 East 53rd Street,,1013657501,agent,
411 East 57th Street,,1013690002,agent,
411 West 22nd Street,,1007200042,agent,
413 Grand Street,,1003150001,agent,
415 East 37th Street,,1009697501,agent,
415 East 52nd Street,,1013640005,agent,
415 East 52nd Street ,11BA,,agent,
415 East 54th Street,,1013667501,agent,
415 East 71st Street,3A,1014660008.0,rebny,RPLU-63220227763
415 East 80th Street,4R,1015600005.0,rebny,RPLU-63220172578
415 Main Street,,1013737503,agent,
416 Washington Street,5F,1002187501.0,rebny,RPLU-63220149869
418 East 59th Street,,1013700038,agent,
42-22 Ketcham Street,B5B6,4015080011.0,rebny,RPLU-63220161175
42-22 Ketcham Street,B5B6,4015080011.0,rebny,RPLU-63219846476
420 East 55th Street,,1013660016,agent,
420 East 64th Street,,1014587503,agent,
420 East 86th Street,,1015657501,agent,
420 Riverside Drive,,1018960001,agent,
421 Hudson Street,309,1006017501.0,rebny,RPLU-63219965348
422 East 72nd Street,,1014667501,agent,
423 95th Street,1H,3061187501.0,rebny,RPLU-63219967088
423 Bay Ridge Parkway,1,3059300080.0,rebny,RPLU-63220245381
424 West 52nd Street ,3,1010610045,agent,
424 West 52nd Street ,1,1010610045,agent,
425 5th Ave,,1008687503,agent,
425 East 51st Street,,1013630008,agent,
425 East 58th Street,,1013700015,agent,
425 East 79th Street,,1015590010,agent,
425 Prospect Place,1F,3011550088.0,rebny,RPLU-63220030964
426 West 58th Street,,1010677502,agent,
428 47th Street,,3007650016.0,rebny,RPLU-63220132449
429 Greenwich Street,6B,1002197501.0,rebny,RPLU-63220137562
429 Kent Avenue,603,3021357508.0,rebny,RPLU-63220158841
43 Canal Street,top                                       floor,1002980034.0,rebny,RPLU-63220168260
43 West 61st Street,,1011147501,agent,
430 East 87th Street,,1015660034,agent,
430 West 245th Street,,2058080326.0,rebny,RPLU-63219831772
431 East 82nd Street,6B,1015620018.0,rebny,RPLU-63220227771
432 Park Ave,,1008590039,agent,
432 West 52nd Street,2D,1010617501.0,rebny,RPLU-63220174860
433 East 56th Street,,1013680013,agent,
434 West 47th Street,,1010560048,agent,
434 West 49th Street,,1010580050,agent,
435 East 65th Street,6B,1014600017.0,rebny,RPLU-63220254740
435 East 65th Street,,1014600017,agent,
435 East 65th Street,5B,1014600017.0,rebny,RPLU-63220049324
435 East 65th Street,7A,1014600017.0,rebny,RPLU-63219777183
435 East 85th Street,,1015650017,agent,
438 7th Street,,3010000030.0,rebny,RPLU-63220157234
438 7th Street,TRIPLEX,3010000030.0,rebny,RPLU-63220142949
438 West 49th Street,,1010580052,agent,
440 East 56th Street,,1013670031,agent,
440 East 56th Street ,PHF,1013670035,agent,
440 East 57th Street,12A,1013680033.0,rebny,RPLU-63219908661
440 East 62nd Street,,1014560026,agent,
440 West End Ave,,1012290001,agent,
441 East 57th Street,,1013697502,agent,
442 Union Street,,3004370034.0,rebny,RPLU-63220231819
444 Central Park W,,1018400029,agent,
444 East 52nd Street,,1013630027,agent,
444 East 75th Street,10E,1014690028.0,rebny,RPLU-63220139144
444 East 86th Street,,1015650029,agent,
445 5th Ave,,1008697501,agent,
445 East 80th Street,6E,1015600021.0,rebny,RPLU-63220259076
445 East 80th Street,3E,1015600021.0,rebny,RPLU-63220233908
4490 Fieldston Road,TOWNHOUSE,2058080326.0,rebny,RPLU-63219735691
45 Central Park North,4E,1015940007.0,rebny,RPLU-63219826193
45 Christopher Street,,1006107501,agent,
45 East 72nd Street,,1013870027,agent,
45 East 72nd Street,1A,1013870027.0,rebny,RPLU-63219623765
45 East End Ave,,1015890034,agent,
45 East End Avenue ,MEDICAL,1015790023,agent,
45 Greene Street,6,1004757506.0,rebny,RPLU-63219512589
45 Sutton Place South,,1013710014,agent,
45 Tudor City Place,,1013350022,agent,
45 Tudor City Place ,1806,,agent,
45 University Place,4,1005610003.0,rebny,RPLU-63220213416
45 West 67th Street,,1011207501,agent,
45 West 89th Street,,1012030015,agent,
451 West 22nd Street ,2F,1007207503,agent,
455 East 57th Street,,1013690019,agent,
455 Main Street,,1013737501,agent,
455 West 48th Street,4F,1010580001.0,rebny,RPLU-63220169690
456 54Th Street,,3008230030.0,rebny,RPLU-63220098396
457 West 57th Street,1512,1010670008.0,rebny,RPLU-63219557407
458 West 146th Street,,1020607502,agent,
46-01 76th St,2,4015310007.0,rebny,RPLU-63220053988
460 East 79th Street,,1014737502,agent,
463 West 21st Street,GARDEN,1007190006.0,rebny,RPLU-63220172339
463 West 57th Street,,1010670007,agent,
4630 Fieldston Road,,2058192135.0,rebny,RPLU-63218835408
464 West 44th Street,7C,1010537503.0,rebny,RPLU-63219857178
465 Park Avenue,6A,1013127502.0,rebny,RPLU-63219743876
465 West End Ave,,1012450019,agent,
467 Central Park W,,1018427501,agent,
468 West 142nd Street,3,1020580024.0,rebny,RPLU-63220236089
469 West 140th Street,1,1020570033.0,rebny,RPLU-63220027701
469 West 140th Street,3,1020570033.0,rebny,RPLU-63220027707
470 West End Ave,,1012300061,agent,
475 Park Ave,,1013120069,agent,
477 FDR Drive,M1101,1003210001.0,rebny,RPLU-63219326259
4821 Arlington Avenue,,2059140348.0,rebny,RPLU-63220176725
488 Fourth Avenue,1,3010210045.0,rebny,RPLU-63219889482
488 Warren Street,4,3003990028.0,rebny,RPLU-63220075700
49 West 72nd Street,,1011250002,agent,
49 West 96th Street,,1018320006,agent,
495 Atlantic Avenue,1,3001790043.0,rebny,RPLU-63220130298
495 West Street,5,1006417502.0,rebny,RPLU-63219920224
498 West End Avenue,PH,1012317502.0,rebny,RPLU-63219162124
5 Riverside Drive,,1011840028,agent,
5 West 120th Street,2,1017207503.0,rebny,RPLU-63220052264
50 Bridge Street,614,3000317502.0,rebny,RPLU-63220247008
50 East 1st Street,,1004430052,agent,
50 East 8th Street,2S,1005480028.0,rebny,RPLU-63220018866
50 Lexington Ave,,1008800019,agent,
50 Lexington Avenue,14A,1008800019.0,rebny,RPLU-63220147070
50 Lexington Avenue,16H,1008800019.0,rebny,RPLU-63220223451
50 Lexington Avenue,18D,1008800019.0,rebny,RPLU-63220201151
50 Lexington Avenue,6B,1008800019.0,rebny,RPLU-63220195283
50 Morningside Drive,,1018670059,agent,
50 Riverside Boulevard,,1011717509,agent,
50 West 96th Street,,1012090053,agent,
500 East 87th Street,,1015830150,agent,
500 Grand Street,CGC,1003310065.0,rebny,RPLU-63220183209
500 West 30th Street,30K,1007017502.0,rebny,RPLU-63220146981
500 West End Ave,,1012327502,agent,
504 Grand Street,,1003310001,agent,
504 Maple Street,1,3047980025.0,rebny,RPLU-63219308331
504 West 111th Street,,1018820038,agent,
505 West 47th Street,,1010767501,agent,
508 East 78th Street,,1014890037,agent,
508 Van Nest Avenue,,2040180002.0,rebny,RPLU-63220046712
51 Jay Street,1F,3000317504.0,rebny,RPLU-63220189249
510 East 80th Street,,1015767501,agent,
510 West 110th Street,,,agent,
513 East 6th Street,4F,1004020059.0,rebny,RPLU-63220221489
514 West End Ave,,1012320061,agent,
515 East 72nd Street,3Q,1014847501.0,rebny,RPLU-63220172276
515 East 72nd Street,,1014847501,agent,
515 East 72nd Street,27B,1014847501.0,rebny,RPLU-63220084599
515 West End Ave,,1012460036,agent,
516 East 78th Street,,1014890037,agent,
516 West 153rd Street,3,1020840044.0,rebny,RPLU-63220052142
516 West 47th Street,,1010757501,agent,
519 West 158th Street,2,1021170049.0,rebny,RPLU-63220180999
519 West 158th Street,GARDEN,1021170049.0,rebny,RPLU-63220180954
52 West 70th Street ,2,1011220047,agent,
520 East 72nd Street,,1014830038,agent,
520 East 90th Street,,1015860043,agent,
520 Park Ave,,1013757504,agent,
520 West 28th Street,,1006997503,agent,
521 West 47th Street,4C,1010760019.0,rebny,RPLU-63220115167
521 West 47th Street,2C,1010760019.0,rebny,RPLU-63220120074
522 West End Ave,,1012330002,agent,
525 West 235th Street,4F,2057920445.0,rebny,RPLU-63220163868
525 West 236th Street,4F,2057960107.0,rebny,RPLU-63220019173
526 West 111th Street,6E,1018820047.0,rebny,RPLU-63220128087
526 West 111th Street,5B,1018820047.0,rebny,RPLU-63220145795
526 West 111th Street,6A,1018820047.0,rebny,RPLU-63220128085
526 West 111th Street,3B,1018820047.0,rebny,RPLU-63220127924
526 West 111th Street,3E,1018820047.0,rebny,RPLU-63220128055
528 5th Street,3R,3010840032.0,rebny,RPLU-63220111714
530 Grand Street,,1003310120,agent,
532 West 111th Street,5,1018820054.0,rebny,RPLU-63220064303
532 West 111th Street ,23,1018820042,agent,
535 Dean street,509,3011287501.0,rebny,RPLU-63220120040
54 Lott Street,2,3051070049.0,rebny,RPLU-63220147435
54 Warren Street,PENTHOUSE,1001367504.0,rebny,RPLU-63220150673
543 West 122nd Street,19A,1019770010.0,rebny,RPLU-63220114159
543 West 122nd Street,15C,1019770010.0,rebny,RPLU-63219358125
543 West 122nd Street,19G,1019770010.0,rebny,RPLU-63220114158
543 West 122nd Street,4F,1019770010.0,rebny,RPLU-63220115967
543 West 122nd Street,7D,1019770010.0,rebny,RPLU-63219358289
543 West 122nd Street,5B,1019770010.0,rebny,RPLU-63219357836
543 West 122nd Street,2C,1019770010.0,rebny,RPLU-63219357986
543 West 122nd Street,6E,1019770010.0,rebny,RPLU-63219382557
543 West 122nd Street,25B,1019770010.0,rebny,RPLU-63219383478
543 West 122nd Street,7A,1019770010.0,rebny,RPLU-63219341282
543 West 122nd Street,19E,1019770010.0,rebny,RPLU-63220114157
543 West 122nd Street,5H,1019770010.0,rebny,RPLU-63219367164
543 West 122nd Street,3G,1019770010.0,rebny,RPLU-63219382670
545 West 110th Street ,8C,1018827502,agent,
545 West End Avenue,14A,1012480029.0,rebny,RPLU-63220040618
545 West End Avenue ,1C,1012480029,agent,
55 Central Park W,,1011180036,agent,
55 East 86th Street,,1014987501,agent,
55 East End Ave,,1015890041,agent,
55 Poplar street,1F,3002077501.0,rebny,RPLU-63220164064
55 Wall Street,622,1000277501.0,rebny,RPLU-63220165806
550 Grand Street,J6C,1003310120.0,rebny,RPLU-63220071905
555 Lenox Avenue,3C,1020077501.0,rebny,RPLU-63220092186
555 Park Ave,,1013960071,agent,
555 West 23rd Street,N10J,1006957503.0,rebny,RPLU-63220249381
555 West 59th Street,14C,1011517503.0,rebny,RPLU-63220171484
555 West 59th Street,,1011517503,agent,
555 West End Ave,,1012487502,agent,
556 3rd Ave,,1008927502,agent,
56 Leonard Street,18AW,1001767501.0,rebny,RPLU-63220082582
56 Leonard Street,21BE,1001767501.0,rebny,RPLU-63220148428
56 Leonard Street,,1001767501,agent,
56 Leonard Street,21BEAST,1001767501.0,rebny,RPLU-63220084482
56 Pine Street,3A,1000417503.0,rebny,RPLU-63220263359
56 Seventh Avenue,9D,1006180033.0,rebny,RPLU-63220242573
56 Seventh Avenue,15C,1006180033.0,rebny,RPLU-63220199929
56 Seventh Avenue,2H,1006180033.0,rebny,RPLU-63220242783
56 Seventh Avenue,17C,1006180033.0,rebny,RPLU-63220174740
560 West 43rd Street,35,1010710001.0,rebny,RPLU-63220016924
5608 Beverley Road,1,3047670003.0,rebny,RPLU-63220035793
561 Pacific Street,309,3001860042.0,rebny,RPLU-63219967481
561 Pacific Street,1002,3001860042.0,rebny,RPLU-63219357718
5635 Netherland Avenue,6B,2059530550.0,rebny,RPLU-63220095542
5649 Sylvan Avenue,,2058532208.0,rebny,RPLU-63220146051
57 Reade Street,7F,1001497502.0,rebny,RPLU-63220199331
570 44th Street,1,3007390032.0,rebny,RPLU-63220214782
575 Park Ave,,1013970069,agent,
58 Metropolitan avenue,6H,3023637502.0,rebny,RPLU-63220264215
58 West 105th Street,,1018400057,agent,
58 West 129th Street,PH,1017267502.0,rebny,RPLU-63220190606
580 West End Ave,,1012360001,agent,
5811 Sixth Avenue,3B,3008570005.0,rebny,RPLU-63219943878
5811 Sixth Avenue,4A,3008570005.0,rebny,RPLU-63219943885
59 Morningside Avenue,4S,1019470003.0,rebny,RPLU-63219516176
591 3rd Ave,,1009197502,agent,
593 17th Street,3L,3008727501.0,rebny,RPLU-63219948814
5998 Palisade Avenue,TOWNHOUSE,2059550640.0,rebny,RPLU-63220132869
5998 Palisade Avenue,,2059550640.0,rebny,RPLU-63219993520
5th Ave,,3006280002,agent,
6 West 71st Street,,1011230038,agent,
60 Court Street,4J,3002657501.0,rebny,RPLU-63220155902
60 East 55th Street,,1012907501,agent,
60 East 8th Street,34LK,1005487501.0,rebny,RPLU-63220023689
60 East 8th Street,30P,1005487501.0,rebny,RPLU-63220137520
60 East 96th Street,12A,1015070045.0,rebny,RPLU-63219847121
60 East End Ave,,1015790023,agent,
60 Riverside Drive,,1011860052,agent,
60 Sutton Place South,3JIN,1013650020.0,rebny,RPLU-63220081603
60 West 68th Street,,1011200057,agent,
600 West 115th Street,,1018967501,agent,
601 East 19th Street,3B,3052190040.0,rebny,RPLU-63220248940
603 West 111th Street,,1018940043,agent,
603 West 148th Street,6B,1020957501.0,rebny,RPLU-63220131944
605 West 111th Street,,1018940036,agent,
605 West 42nd Street,27M,1010907502.0,rebny,RPLU-63220163742
606 West 191st Street,A,1021690043.0,rebny,RPLU-63220180628
61 East 77th Street,,1013920028,agent,
61 Irving Place,1A,1008730059.0,rebny,RPLU-63220118251
61 West 62nd Street,,1011157502,agent,
610 Warren Street,PHB,3004017501.0,rebny,RPLU-63219258054
611 West 111th Street,,1018940036,agent,
615 West 183rd Street,1B,1021650053.0,rebny,RPLU-63220202680
62 West 62nd Street,,1011147502,agent,
622 West 114th Street,,1018950069,agent,
623 Grand Avenue,3,3011550004.0,rebny,RPLU-63220065302
63 East 9th Street,10B,1005617501.0,rebny,RPLU-63220218926
63 Engert Avenue,2,3026987501.0,rebny,RPLU-63220234233
63 Engert Avenue,2,3026987501.0,rebny,RPLU-63220238498
630 1st Ave,,1009687501,agent,
630 East 9th Street,12,1003910022.0,rebny,RPLU-63220219321
64 East 94th Street,,1015050044,agent,
640 West 237th Street,11A,2059037501.0,rebny,RPLU-63220156220
640 West 237th Street,9A,2059037501.0,rebny,RPLU-63219618317
640 West 237th Street,10A,2059037501.0,rebny,RPLU-63220071078
645 West End Ave,,1012510062,agent,
65 Gates Avenue,,3019620086.0,rebny,RPLU-63219838899
65 Irving Place,1R,3019840004.0,rebny,RPLU-63220031383
65 Irving Place,2,3019840004.0,rebny,RPLU-63219762120
65 West 55th Street,9F,1012710007.0,rebny,RPLU-63220231909
65 West 95th Street,,1012090006,agent,
655 Park Ave,,1014020001,agent,
66 Madison Ave,,1008570018,agent,
666 Franklin Avenue,COMMERCIAL,3011560053.0,rebny,RPLU-63220180197
67 East 11th Street ,607,1005630046,agent,
673 Degraw St,3,3009460068.0,rebny,RPLU-63212544421
6735 Ridge Boulevard,4H,3058530001.0,rebny,RPLU-63220206226
684 Broadway,6W,1005310001.0,rebny,RPLU-63220035889
689 Myrtle Avenue,3H,3017347503.0,rebny,RPLU-63219519594
69 Bennett Avenue,301,1021807501.0,rebny,RPLU-63220065366
69 East 130th Street,5C,1017557501.0,rebny,RPLU-63220178040
695 1st Ave,,1009450023,agent,
7 East 85th Street,,1014970007,agent,
7 Hubert Street,PHB,1002147503.0,rebny,RPLU-63219634109
7 Park Ave,,1008900001,agent,
70 Charlton Street,7E,1005800011.0,rebny,RPLU-63220165411
70 Greenway South,,4032690001.0,rebny,RPLU-63219589955
70 Washington Street,10I,3000457501.0,rebny,RPLU-63220068181
70 Washington Street,6S,3000457501.0,rebny,RPLU-63220174618
70 Washington Street,8I,3000457501.0,rebny,RPLU-63220210501
70 Washington Street,4J,3000457501.0,rebny,RPLU-63220054127
70 West 45th Street,,1012607502,agent,
70-25 Yellowstone Blvd,19Z,4032360035.0,rebny,RPLU-63220013297
700 Lafayette Avenue,1,3017910010.0,rebny,RPLU-63219727011
71-40 112th Street,107,4022350038.0,rebny,RPLU-63219858228
715 Park Ave,,1014047501,agent,
715 Park Avenue,MEDICAL,1014047501.0,rebny,RPLU-63220208893
715 Park Avenue ,MEDICAL,1015147501,agent,
720 West 173rd Street,,1021390316,agent,
720 West 181st Street,57,1021760123.0,rebny,RPLU-63220058487
721 5th Ave,,1012927501,agent,
722 Miller Avenue,,3043030021.0,rebny,RPLU-63220056126
726 Decatur Street,1,3015070011.0,rebny,RPLU-63220134532
73 East 3rd Street,A2,1004450050.0,rebny,RPLU-63220182916
732 West End Ave,,1012437502,agent,
735 Kappock Street,4F,2057500357.0,rebny,RPLU-63220266285
736 West 187th Street,307,1021807503.0,rebny,RPLU-63220176878
75 Bedford Street,TOWNHOUSE,1005840030.0,rebny,RPLU-63220179868
75 East End Ave,,1015900008,agent,
75 Poplar Street,3H,3002077502.0,rebny,RPLU-63220155862
75 Wall Street,23D,1000317501.0,rebny,RPLU-63220208874
750 Park Ave,,1013860037,agent,
760 West End Ave,,1018690001,agent,
77 Bleecker Street,729,1005320020.0,rebny,RPLU-63219864809
77 Park Ave,,1008947501,agent,
77 Seventh Avenue,5T,1007900001.0,rebny,RPLU-63220069570
78 Eighth Avenue,5F,3010650031.0,rebny,RPLU-63220223591
781 5th Ave,,1013740001,agent,
79 Bridge street,3G,3000557501.0,rebny,RPLU-63220155688
8 East 83rd Street,,1014940059,agent,
8 East 96th Street,,1015070064,agent,
8 St Marks Place,PHA,3003950003.0,rebny,RPLU-63219943218
80 Metropolitan avenue,4S,3023637501.0,rebny,RPLU-63220200842
80 Metropolitan avenue,PHV,3023637501.0,rebny,RPLU-63220132043
80 Metropolitan avenue,4F,3023637501.0,rebny,RPLU-63220219656
80 Metropolitan avenue,5M,3023637501.0,rebny,RPLU-63220185909
80 Metropolitan avenue,1Q,3023637501.0,rebny,RPLU-63220133775
80 Metropolitan avenue,PHS,3023637501.0,rebny,RPLU-63220196008
80 Metropolitan avenue,2H,3023637501.0,rebny,RPLU-63220150231
80 Park Ave,,1008687502,agent,
804 West 180th Street,,1021770154,agent,
808 Park Place,APT3A,3012400029.0,rebny,RPLU-63220173086
812 Park Avenue,MEDICAL,1013890038.0,rebny,RPLU-63219865855
82 University Place,3,1005697505.0,rebny,RPLU-63220051309
82 West 120th Street,2,1017180068.0,rebny,RPLU-63217976608
829 Park Ave,,1014100069,agent,
830 Park Ave,,1013900037,agent,
832 Broadway,5,1005640036.0,rebny,RPLU-63219882478
834 Riverside Drive,5B,1021360018.0,rebny,RPLU-63220056869
838 41st Street,3A,3009230022.0,rebny,RPLU-63220038396
839 West End Ave,,1018890022,agent,
845 United Nations Plaza,17B,1013407501.0,rebny,RPLU-63220151354
845 United Nations Plaza,16E,1013407501.0,rebny,RPLU-63220172447
845 United Nations Plaza,,1013407501,agent,
845 United Nations Plz,,1013407501,agent,
85 ADAMS STREET,4C,3000527501.0,rebny,RPLU-63220189007
85 ADAMS STREET,8A,3000527501.0,rebny,RPLU-63220163780
857 Carroll Street,TOWNHOUSE,3010680049.0,rebny,RPLU-63220221208
860 United Nations Plaza ,8C,1013607501,agent,
865 United Nations Plaza,,1013417505,agent,
865 United Nations Plaza,10A,1013417505.0,rebny,RPLU-63220129043
875 West 181st Street,5H,1021790001.0,rebny,RPLU-63220222029
88 Bleecker Street,5C,1005230038.0,rebny,RPLU-63220201366
880 West 181st Street,,1021770242,agent,
89 Greene Street,2,1005007507.0,rebny,RPLU-63220148899
89-20 163rd Street,1,4097610057.0,rebny,RPLU-63220206546
890 West End Ave,,1018750061,agent,
895 Park Ave,,1014130071,agent,
9 East 9th Street,5,1016020009.0,rebny,RPLU-63220239736
90 Riverside Drive,,1012440063,agent,
900 5th Ave,,1013860001,agent,
900 Park Ave,,1014917501,agent,
905 West End Ave,,1018917502,agent,
907 5th Ave,,1013860069,agent,
910 Park Avenue,1S,1014910037.0,rebny,RPLU-63220157496
912 President Street,4,3010680017.0,rebny,RPLU-63220255269
92 Morningside Avenue,7F,1019490001.0,rebny,RPLU-63220128484
92 Morningside Avenue,1A,1019490001.0,rebny,RPLU-63220153214
923 Fifth Avenue,MEDICAL,1013887501.0,rebny,RPLU-63220001047
936 5th Ave,,1013890069,agent,
941 Park Ave,,1015100001,agent,
943 Amsterdam Avenue,,1018610002,agent,
95 Ainslie Street,1R,3027670058.0,rebny,RPLU-63220187131
95 Diamond Street,3A,3026510022.0,rebny,RPLU-63220163887
955 Lexington Avenue,11B,1014040052.0,rebny,RPLU-63220081984
959 1st Ave,,1013457502,agent,
96 Arden Street,,1021750032,agent,
98 Morningside Avenue,77,1019490061.0,rebny,RPLU-63220133746
98 Riverside Drive,16E,1012440090.0,rebny,RPLU-63220199883
98 Riverside Drive,5D,1012440090.0,rebny,RPLU-63220064181
98 Riverside Drive,14G,1012440090.0,rebny,RPLU-63220199859
98 Riverside Drive,17DE,1012440090.0,rebny,RPLU-63220108356
98 Riverside Drive,14C,1012440090.0,rebny,RPLU-63220083895
98 Riverside Drive,5A,1012440090.0,rebny,RPLU-63220220192
98 Riverside Drive,PHD,1012440090.0,rebny,RPLU-63220199879
99 Jane Street,3C,1006427502.0,rebny,RPLU-63220231106
9th Ave,,1006280001,agent,
Beekman Place,,1013610039,agent,
Broadway,,4003130101,agent,
Central Park S,,1011110001,agent,
Central Park W,,1011110001,agent,
East 23rd Street,,3051660010,agent,
East 24th Street,,1008530001,agent,
East 27th Street,,1008827501,agent,
East 28th Street,,3051290010,agent,
East 29th Street,,1013790021,agent,
East 30th Street,,1009100039,agent,
East 32nd Street,,1008610015,agent,
East 35th Street,,1008640041,agent,
East 36th Street,,1009160061,agent,
East 37th Street,,1008920080,agent,
East 38th Street,,1008670018,agent,
East 40th Street,,1013807501,agent,
East 41st Street,,1013107501,agent,
East 42nd Street,,3048460010,agent,
East 43rd Street,,3048470004,agent,
East 45th Street,,1012790045,agent,
East 46th Street,,1013390012,agent,
East 47th Street,,1013207506,agent,
East 48th Street,,3045890071,agent,
East 49th Street,,1013030041,agent,
East 50th Street,,1013427503,agent,
East 51st Street,,1013250024,agent,
East 52nd Street,,1012870014,agent,
East 53rd Street,,3046060013,agent,
East 54th Street,,1013470018,agent,
East 55th Street,,1013107501,agent,
East 56th Street,,1013497501,agent,
East 57th Street,,1013310014,agent,
East 58th Street,,1013510017,agent,
East 59th Street,,1012740034,agent,
East 60th Street,,1013740014,agent,
East 61st Street,,1013957501,agent,
East 62nd Street,,1003980058,agent,
East 63rd Street,,1013970066,agent,
East 64th Street,,1013790021,agent,
East 65th Street,,1013790044,agent,
East 68th Street,,1014430011,agent,
East 69th Street,,3083550065,agent,
East 70th Street,,1014050033,agent,
East 71st Street,,3083920043,agent,
East 72nd Street,,1013860044,agent,
East 73rd Street,,1013870004,agent,
East 74th Street,,1013897503,agent,
East 75th Street,,1013890056,agent,
East 76th Street,,1014117501,agent,
East 77th Street,,1013910045,agent,
East 79th Street,,1015087501,agent,
East 80th Street,,1015090016,agent,
East 81st Street,,1014930107,agent,
East 82nd Street,,1015447502,agent,
East 83rd Street,,1015620037,agent,
East 84th Street,,1015130015,agent,
East 85th Street,,3079630001,agent,
East 86th Street,,1014987501,agent,
East 87th Street,,1014980061,agent,
East 89th Street,,1015010016,agent,
East 8th Street,,3053200009,agent,
East 90th Street,,1015350042,agent,
East 91st Street,,3045930001,agent,
East 93rd Street,,3045950011,agent,
East 97th Street,,1016020038,agent,
East End Ave,,1015760027,agent,
Edgecombe Ave,,1020540062,agent,
Gramercy Park S,,1008750047,agent,
Lenox Ave,,1019040130,agent,
Lexington Ave,,1240019989,agent,
Madison Ave,,1240009998,agent,
Main Street,,3000160005,agent,
Park Ave,,2023190055,agent,
Park Ave S,,1008460033,agent,
Riverside Boulevard,,1011710001,agent,
Riverside Drive,,1020967501,agent,
Sutton Pl S,,1013650020,agent,
Tudor City Place,,1013340022,agent,
United Nations Plz,,1013330023,agent,
West 100th Street,,1018337507,agent,
West 102nd Street,,1018370021,agent,
West 106th Street,,1018410041,agent,
West 108th Street,,1018430036,agent,
West 110th Street,,1018937502,agent,
West 111th Street,,1015940040,agent,
West 114th Street,,1018230036,agent,
West 116th Street,,1015990044,agent,
West 15th Street,,3069190001,agent,
West 18th Street,,4153220050,agent,
West 204th Street,,1022380017,agent,
West 21st Street,,1008220045,agent,
West 23rd Street,,1006957503,agent,
West 38th Street,,1020870029,agent,
West 39th Street,,1006800001,agent,
West 42nd Street,,1007207504,agent,
West 43rd Street,,1020750023,agent,
West 45th Street,,1007187503,agent,
West 46th Street,,1009980008,agent,
West 48th Street,,1010000029,agent,
West 49th Street,,1010010012,agent,
West 51st Street,,1021520159,agent,
West 53rd Street,,1010050001,agent,
West 54th Street,,1010060013,agent,
West 55th Street,,1010460023,agent,
West 56th Street,,1010460047,agent,
West 57th Street,,1021280012,agent,
West 58th Street,,1007987504,agent,
West 59th Street,,1010680001,agent,
West 60th Street,,1020870029,agent,
West 61st Street,,1018937502,agent,
West 63rd Street,,1011157503,agent,
West 64th Street,,1011170019,agent,
West 66th Street,,1011180001,agent,
West 67th Street,,1011190047,agent,
West 68th Street,,1011200033,agent,
West 70th Street,,1011420028,agent,
West 71st Street,,1011240020,agent,
West 72nd Street,,1011447501,agent,
West 75th Street,,1011270029,agent,
West 76th Street,,1011850029,agent,
West 77th Street,,1011290045,agent,
West 79th Street,,1021520159,agent,
West 81st Street,,1011300001,agent,
West 83rd Street,,1011960035,agent,
West 84th Street,,1012450080,agent,
West 85th Street,,1011980036,agent,
West 86th Street,,1012167502,agent,
West 87th Street,,1012170047,agent,
West 88th Street,,1012490044,agent,
West 89th Street,,1012500089,agent,
West 90th Street,,1012030001,agent,
West 91st Street,,1012040001,agent,
West 93rd Street,,1012407502,agent,
West 94th Street,,1012070001,agent,
West 95th Street,,1012090006,agent,
West 96th Street,,1012090001,agent,
West 99th Street,,1018700004,agent,
West End Ave,,1011517502,agent,
